Terminals which are not used

   NAME


State 63 conflicts: 1 shift/reduce


Grammar

    0 $accept: program $end

    1 program: var_dec stmt_seq

    2 var_dec: var_dec single_dec
    3        | epsilon

    4 single_dec: type ID SEMICOLON

    5 type: INTEGER
    6     | FLOAT

    7 stmt_seq: stmt_seq stmt m
    8         | epsilon

    9 stmt: IF exp THEN m stmt
   10     | IF exp THEN m stmt n m stmt
   11     | WHILE m exp DO m stmt
   12     | variable ASSIGN exp SEMICOLON
   13     | READ LPAREN variable RPAREN SEMICOLON
   14     | WRITE LPAREN exp RPAREN SEMICOLON
   15     | block

   16 m: /* empty */

   17 n: ELSE

   18 block: LBRACKET stmt_seq RBRACKET

   19 exp: simple_exp LT simple_exp
   20    | simple_exp MR simple_exp
   21    | simple_exp EQ simple_exp
   22    | simple_exp

   23 simple_exp: simple_exp PLUS term
   24           | simple_exp MINUS term
   25           | term

   26 term: term TIMES factor
   27     | term DIV factor
   28     | factor

   29 factor: LPAREN exp RPAREN
   30       | INT_NUM
   31       | FLOAT_NUM
   32       | variable

   33 variable: ID

   34 epsilon: /* empty */


Terminals, with rules where they appear

$end (0) 0
error (256)
NAME (258)
IF (259) 9 10
THEN (260) 9 10
ELSE (261) 17
WHILE (262) 11
DO (263) 11
ASSIGN (264) 12
READ (265) 13
LPAREN (266) 13 14 29
RPAREN (267) 13 14 29
SEMICOLON (268) 4 12 13 14
WRITE (269) 14
LBRACKET (270) 18
RBRACKET (271) 18
LT (272) 19
MR (273) 20
EQ (274) 21
PLUS (275) 23
MINUS (276) 24
TIMES (277) 26
DIV (278) 27
ID (279) 4 33
INTEGER (280) 5
FLOAT (281) 6
INT_NUM (282) 30
FLOAT_NUM (283) 31


Nonterminals, with rules where they appear

$accept (29)
    on left: 0
program (30)
    on left: 1, on right: 0
var_dec (31)
    on left: 2 3, on right: 1 2
single_dec (32)
    on left: 4, on right: 2
type (33)
    on left: 5 6, on right: 4
stmt_seq (34)
    on left: 7 8, on right: 1 7 18
stmt (35)
    on left: 9 10 11 12 13 14 15, on right: 7 9 10 11
m (36)
    on left: 16, on right: 7 9 10 11
n (37)
    on left: 17, on right: 10
block (38)
    on left: 18, on right: 15
exp (39)
    on left: 19 20 21 22, on right: 9 10 11 12 14 29
simple_exp (40)
    on left: 23 24 25, on right: 19 20 21 22 23 24
term (41)
    on left: 26 27 28, on right: 23 24 25 26 27
factor (42)
    on left: 29 30 31 32, on right: 26 27 28
variable (43)
    on left: 33, on right: 12 13 32
epsilon (44)
    on left: 34, on right: 3 8


state 0

    0 $accept: . program $end

    $default  reduce using rule 34 (epsilon)

    program  go to state 1
    var_dec  go to state 2
    epsilon  go to state 3


state 1

    0 $accept: program . $end

    $end  shift, and go to state 4


state 2

    1 program: var_dec . stmt_seq
    2 var_dec: var_dec . single_dec

    INTEGER  shift, and go to state 5
    FLOAT    shift, and go to state 6

    $default  reduce using rule 34 (epsilon)

    single_dec  go to state 7
    type        go to state 8
    stmt_seq    go to state 9
    epsilon     go to state 10


state 3

    3 var_dec: epsilon .

    $default  reduce using rule 3 (var_dec)


state 4

    0 $accept: program $end .

    $default  accept


state 5

    5 type: INTEGER .

    $default  reduce using rule 5 (type)


state 6

    6 type: FLOAT .

    $default  reduce using rule 6 (type)


state 7

    2 var_dec: var_dec single_dec .

    $default  reduce using rule 2 (var_dec)


state 8

    4 single_dec: type . ID SEMICOLON

    ID  shift, and go to state 11


state 9

    1 program: var_dec stmt_seq .
    7 stmt_seq: stmt_seq . stmt m

    IF        shift, and go to state 12
    WHILE     shift, and go to state 13
    READ      shift, and go to state 14
    WRITE     shift, and go to state 15
    LBRACKET  shift, and go to state 16
    ID        shift, and go to state 17

    $default  reduce using rule 1 (program)

    stmt      go to state 18
    block     go to state 19
    variable  go to state 20


state 10

    8 stmt_seq: epsilon .

    $default  reduce using rule 8 (stmt_seq)


state 11

    4 single_dec: type ID . SEMICOLON

    SEMICOLON  shift, and go to state 21


state 12

    9 stmt: IF . exp THEN m stmt
   10     | IF . exp THEN m stmt n m stmt

    LPAREN     shift, and go to state 22
    ID         shift, and go to state 17
    INT_NUM    shift, and go to state 23
    FLOAT_NUM  shift, and go to state 24

    exp         go to state 25
    simple_exp  go to state 26
    term        go to state 27
    factor      go to state 28
    variable    go to state 29


state 13

   11 stmt: WHILE . m exp DO m stmt

    $default  reduce using rule 16 (m)

    m  go to state 30


state 14

   13 stmt: READ . LPAREN variable RPAREN SEMICOLON

    LPAREN  shift, and go to state 31


state 15

   14 stmt: WRITE . LPAREN exp RPAREN SEMICOLON

    LPAREN  shift, and go to state 32


state 16

   18 block: LBRACKET . stmt_seq RBRACKET

    $default  reduce using rule 34 (epsilon)

    stmt_seq  go to state 33
    epsilon   go to state 10


state 17

   33 variable: ID .

    $default  reduce using rule 33 (variable)


state 18

    7 stmt_seq: stmt_seq stmt . m

    $default  reduce using rule 16 (m)

    m  go to state 34


state 19

   15 stmt: block .

    $default  reduce using rule 15 (stmt)


state 20

   12 stmt: variable . ASSIGN exp SEMICOLON

    ASSIGN  shift, and go to state 35


state 21

    4 single_dec: type ID SEMICOLON .

    $default  reduce using rule 4 (single_dec)


state 22

   29 factor: LPAREN . exp RPAREN

    LPAREN     shift, and go to state 22
    ID         shift, and go to state 17
    INT_NUM    shift, and go to state 23
    FLOAT_NUM  shift, and go to state 24

    exp         go to state 36
    simple_exp  go to state 26
    term        go to state 27
    factor      go to state 28
    variable    go to state 29


state 23

   30 factor: INT_NUM .

    $default  reduce using rule 30 (factor)


state 24

   31 factor: FLOAT_NUM .

    $default  reduce using rule 31 (factor)


state 25

    9 stmt: IF exp . THEN m stmt
   10     | IF exp . THEN m stmt n m stmt

    THEN  shift, and go to state 37


state 26

   19 exp: simple_exp . LT simple_exp
   20    | simple_exp . MR simple_exp
   21    | simple_exp . EQ simple_exp
   22    | simple_exp .
   23 simple_exp: simple_exp . PLUS term
   24           | simple_exp . MINUS term

    LT     shift, and go to state 38
    MR     shift, and go to state 39
    EQ     shift, and go to state 40
    PLUS   shift, and go to state 41
    MINUS  shift, and go to state 42

    $default  reduce using rule 22 (exp)


state 27

   25 simple_exp: term .
   26 term: term . TIMES factor
   27     | term . DIV factor

    TIMES  shift, and go to state 43
    DIV    shift, and go to state 44

    $default  reduce using rule 25 (simple_exp)


state 28

   28 term: factor .

    $default  reduce using rule 28 (term)


state 29

   32 factor: variable .

    $default  reduce using rule 32 (factor)


state 30

   11 stmt: WHILE m . exp DO m stmt

    LPAREN     shift, and go to state 22
    ID         shift, and go to state 17
    INT_NUM    shift, and go to state 23
    FLOAT_NUM  shift, and go to state 24

    exp         go to state 45
    simple_exp  go to state 26
    term        go to state 27
    factor      go to state 28
    variable    go to state 29


state 31

   13 stmt: READ LPAREN . variable RPAREN SEMICOLON

    ID  shift, and go to state 17

    variable  go to state 46


state 32

   14 stmt: WRITE LPAREN . exp RPAREN SEMICOLON

    LPAREN     shift, and go to state 22
    ID         shift, and go to state 17
    INT_NUM    shift, and go to state 23
    FLOAT_NUM  shift, and go to state 24

    exp         go to state 47
    simple_exp  go to state 26
    term        go to state 27
    factor      go to state 28
    variable    go to state 29


state 33

    7 stmt_seq: stmt_seq . stmt m
   18 block: LBRACKET stmt_seq . RBRACKET

    IF        shift, and go to state 12
    WHILE     shift, and go to state 13
    READ      shift, and go to state 14
    WRITE     shift, and go to state 15
    LBRACKET  shift, and go to state 16
    RBRACKET  shift, and go to state 48
    ID        shift, and go to state 17

    stmt      go to state 18
    block     go to state 19
    variable  go to state 20


state 34

    7 stmt_seq: stmt_seq stmt m .

    $default  reduce using rule 7 (stmt_seq)


state 35

   12 stmt: variable ASSIGN . exp SEMICOLON

    LPAREN     shift, and go to state 22
    ID         shift, and go to state 17
    INT_NUM    shift, and go to state 23
    FLOAT_NUM  shift, and go to state 24

    exp         go to state 49
    simple_exp  go to state 26
    term        go to state 27
    factor      go to state 28
    variable    go to state 29


state 36

   29 factor: LPAREN exp . RPAREN

    RPAREN  shift, and go to state 50


state 37

    9 stmt: IF exp THEN . m stmt
   10     | IF exp THEN . m stmt n m stmt

    $default  reduce using rule 16 (m)

    m  go to state 51


state 38

   19 exp: simple_exp LT . simple_exp

    LPAREN     shift, and go to state 22
    ID         shift, and go to state 17
    INT_NUM    shift, and go to state 23
    FLOAT_NUM  shift, and go to state 24

    simple_exp  go to state 52
    term        go to state 27
    factor      go to state 28
    variable    go to state 29


state 39

   20 exp: simple_exp MR . simple_exp

    LPAREN     shift, and go to state 22
    ID         shift, and go to state 17
    INT_NUM    shift, and go to state 23
    FLOAT_NUM  shift, and go to state 24

    simple_exp  go to state 53
    term        go to state 27
    factor      go to state 28
    variable    go to state 29


state 40

   21 exp: simple_exp EQ . simple_exp

    LPAREN     shift, and go to state 22
    ID         shift, and go to state 17
    INT_NUM    shift, and go to state 23
    FLOAT_NUM  shift, and go to state 24

    simple_exp  go to state 54
    term        go to state 27
    factor      go to state 28
    variable    go to state 29


state 41

   23 simple_exp: simple_exp PLUS . term

    LPAREN     shift, and go to state 22
    ID         shift, and go to state 17
    INT_NUM    shift, and go to state 23
    FLOAT_NUM  shift, and go to state 24

    term      go to state 55
    factor    go to state 28
    variable  go to state 29


state 42

   24 simple_exp: simple_exp MINUS . term

    LPAREN     shift, and go to state 22
    ID         shift, and go to state 17
    INT_NUM    shift, and go to state 23
    FLOAT_NUM  shift, and go to state 24

    term      go to state 56
    factor    go to state 28
    variable  go to state 29


state 43

   26 term: term TIMES . factor

    LPAREN     shift, and go to state 22
    ID         shift, and go to state 17
    INT_NUM    shift, and go to state 23
    FLOAT_NUM  shift, and go to state 24

    factor    go to state 57
    variable  go to state 29


state 44

   27 term: term DIV . factor

    LPAREN     shift, and go to state 22
    ID         shift, and go to state 17
    INT_NUM    shift, and go to state 23
    FLOAT_NUM  shift, and go to state 24

    factor    go to state 58
    variable  go to state 29


state 45

   11 stmt: WHILE m exp . DO m stmt

    DO  shift, and go to state 59


state 46

   13 stmt: READ LPAREN variable . RPAREN SEMICOLON

    RPAREN  shift, and go to state 60


state 47

   14 stmt: WRITE LPAREN exp . RPAREN SEMICOLON

    RPAREN  shift, and go to state 61


state 48

   18 block: LBRACKET stmt_seq RBRACKET .

    $default  reduce using rule 18 (block)


state 49

   12 stmt: variable ASSIGN exp . SEMICOLON

    SEMICOLON  shift, and go to state 62


state 50

   29 factor: LPAREN exp RPAREN .

    $default  reduce using rule 29 (factor)


state 51

    9 stmt: IF exp THEN m . stmt
   10     | IF exp THEN m . stmt n m stmt

    IF        shift, and go to state 12
    WHILE     shift, and go to state 13
    READ      shift, and go to state 14
    WRITE     shift, and go to state 15
    LBRACKET  shift, and go to state 16
    ID        shift, and go to state 17

    stmt      go to state 63
    block     go to state 19
    variable  go to state 20


state 52

   19 exp: simple_exp LT simple_exp .
   23 simple_exp: simple_exp . PLUS term
   24           | simple_exp . MINUS term

    PLUS   shift, and go to state 41
    MINUS  shift, and go to state 42

    $default  reduce using rule 19 (exp)


state 53

   20 exp: simple_exp MR simple_exp .
   23 simple_exp: simple_exp . PLUS term
   24           | simple_exp . MINUS term

    PLUS   shift, and go to state 41
    MINUS  shift, and go to state 42

    $default  reduce using rule 20 (exp)


state 54

   21 exp: simple_exp EQ simple_exp .
   23 simple_exp: simple_exp . PLUS term
   24           | simple_exp . MINUS term

    PLUS   shift, and go to state 41
    MINUS  shift, and go to state 42

    $default  reduce using rule 21 (exp)


state 55

   23 simple_exp: simple_exp PLUS term .
   26 term: term . TIMES factor
   27     | term . DIV factor

    TIMES  shift, and go to state 43
    DIV    shift, and go to state 44

    $default  reduce using rule 23 (simple_exp)


state 56

   24 simple_exp: simple_exp MINUS term .
   26 term: term . TIMES factor
   27     | term . DIV factor

    TIMES  shift, and go to state 43
    DIV    shift, and go to state 44

    $default  reduce using rule 24 (simple_exp)


state 57

   26 term: term TIMES factor .

    $default  reduce using rule 26 (term)


state 58

   27 term: term DIV factor .

    $default  reduce using rule 27 (term)


state 59

   11 stmt: WHILE m exp DO . m stmt

    $default  reduce using rule 16 (m)

    m  go to state 64


state 60

   13 stmt: READ LPAREN variable RPAREN . SEMICOLON

    SEMICOLON  shift, and go to state 65


state 61

   14 stmt: WRITE LPAREN exp RPAREN . SEMICOLON

    SEMICOLON  shift, and go to state 66


state 62

   12 stmt: variable ASSIGN exp SEMICOLON .

    $default  reduce using rule 12 (stmt)


state 63

    9 stmt: IF exp THEN m stmt .
   10     | IF exp THEN m stmt . n m stmt

    ELSE  shift, and go to state 67

    ELSE      [reduce using rule 9 (stmt)]
    $default  reduce using rule 9 (stmt)

    n  go to state 68


state 64

   11 stmt: WHILE m exp DO m . stmt

    IF        shift, and go to state 12
    WHILE     shift, and go to state 13
    READ      shift, and go to state 14
    WRITE     shift, and go to state 15
    LBRACKET  shift, and go to state 16
    ID        shift, and go to state 17

    stmt      go to state 69
    block     go to state 19
    variable  go to state 20


state 65

   13 stmt: READ LPAREN variable RPAREN SEMICOLON .

    $default  reduce using rule 13 (stmt)


state 66

   14 stmt: WRITE LPAREN exp RPAREN SEMICOLON .

    $default  reduce using rule 14 (stmt)


state 67

   17 n: ELSE .

    $default  reduce using rule 17 (n)


state 68

   10 stmt: IF exp THEN m stmt n . m stmt

    $default  reduce using rule 16 (m)

    m  go to state 70


state 69

   11 stmt: WHILE m exp DO m stmt .

    $default  reduce using rule 11 (stmt)


state 70

   10 stmt: IF exp THEN m stmt n m . stmt

    IF        shift, and go to state 12
    WHILE     shift, and go to state 13
    READ      shift, and go to state 14
    WRITE     shift, and go to state 15
    LBRACKET  shift, and go to state 16
    ID        shift, and go to state 17

    stmt      go to state 71
    block     go to state 19
    variable  go to state 20


state 71

   10 stmt: IF exp THEN m stmt n m stmt .

    $default  reduce using rule 10 (stmt)
